%YAML 1.1
%TAG !u! tag:unity3d.com,2011:
--- !u!74 &7400000
AnimationClip:
  m_ObjectHideFlags: 0
  m_CorrespondingSourceObject: {fileID: 0}
  m_PrefabInstance: {fileID: 0}
  m_PrefabAsset: {fileID: 0}
  m_Name: Quimico_Amin
  serializedVersion: 6
  m_Legacy: 0
  m_Compressed: 0
  m_UseHighQualityCurve: 1
  m_RotationCurves: []
  m_CompressedRotationCurves: []
  m_EulerCurves: []
  m_PositionCurves: []
  m_ScaleCurves: []
  m_FloatCurves: []
  m_PPtrCurves:
  - curve:
    - time: 0
      value: {fileID: 21300000, guid: aa32413192dce584ba4ca312400ac4ec, type: 3}
    - time: 0.15
      value: {fileID: 21300000, guid: aa32413192dce584ba4ca312400ac4ec, type: 3}
    - time: 0.2
      value: {fileID: 21300000, guid: aa32413192dce584ba4ca312400ac4ec, type: 3}
    - time: 0.33333334
      value: {fileID: 21300000, guid: 555a3ec821563e246bd9e6c18969ff11, type: 3}
    - time: 0.46666667
      value: {fileID: 21300000, guid: 555a3ec821563e246bd9e6c18969ff11, type: 3}
    - time: 0.53333336
      value: {fileID: 21300000, guid: 555a3ec821563e246bd9e6c18969ff11, type: 3}
    - time: 0.68333334
      value: {fileID: 21300000, guid: 30480ca870526474483cfe16d70bfd78, type: 3}
    - time: 0.8
      value: {fileID: 21300000, guid: 30480ca870526474483cfe16d70bfd78, type: 3}
    - time: 0.8666667
      value: {fileID: 21300000, guid: 30480ca870526474483cfe16d70bfd78, type: 3}
    - time: 1
      value: {fileID: 21300000, guid: 0cb0d7c51cf4f834fa5257c498bbb1ad, type: 3}
    - time: 1.1333333
      value: {fileID: 21300000, guid: 0cb0d7c51cf4f834fa5257c498bbb1ad, type: 3}
    - time: 1.2166667
      value: {fileID: 21300000, guid: 0cb0d7c51cf4f834fa5257c498bbb1ad, type: 3}
    - time: 1.3333334
      value: {fileID: 21300000, guid: aa32413192dce584ba4ca312400ac4ec, type: 3}
    attribute: m_Sprite
    path: 
    classID: 212
    script: {fileID: 0}
  m_SampleRate: 60
  m_WrapMode: 0
  m_Bounds:
    m_Center: {x: 0, y: 0, z: 0}
    m_Extent: {x: 0, y: 0, z: 0}
  m_ClipBindingConstant:
    genericBindings:
    - serializedVersion: 2
      path: 0
      attribute: 0
      script: {fileID: 0}
      typeID: 212
      customType: 23
      isPPtrCurve: 1
    pptrCurveMapping:
    - {fileID: 21300000, guid: aa32413192dce584ba4ca312400ac4ec, type: 3}
    - {fileID: 21300000, guid: aa32413192dce584ba4ca312400ac4ec, type: 3}
    - {fileID: 21300000, guid: aa32413192dce584ba4ca312400ac4ec, type: 3}
    - {fileID: 21300000, guid: 555a3ec821563e246bd9e6c18969ff11, type: 3}
    - {fileID: 21300000, guid: 555a3ec821563e246bd9e6c18969ff11, type: 3}
    - {fileID: 21300000, guid: 555a3ec821563e246bd9e6c18969ff11, type: 3}
    - {fileID: 21300000, guid: 30480ca870526474483cfe16d70bfd78, type: 3}
    - {fileID: 21300000, guid: 30480ca870526474483cfe16d70bfd78, type: 3}
    - {fileID: 21300000, guid: 30480ca870526474483cfe16d70bfd78, type: 3}
    - {fileID: 21300000, guid: 0cb0d7c51cf4f834fa5257c498bbb1ad, type: 3}
    - {fileID: 21300000, guid: 0cb0d7c51cf4f834fa5257c498bbb1ad, type: 3}
    - {fileID: 21300000, guid: 0cb0d7c51cf4f834fa5257c498bbb1ad, type: 3}
    - {fileID: 21300000, guid: aa32413192dce584ba4ca312400ac4ec, type: 3}
  m_AnimationClipSettings:
    serializedVersion: 2
    m_AdditiveReferencePoseClip: {fileID: 0}
    m_AdditiveReferencePoseTime: 0
    m_StartTime: 0
    m_StopTime: 1.35
    m_OrientationOffsetY: 0
    m_Level: 0
    m_CycleOffset: 0
    m_HasAdditiveReferencePose: 0
    m_LoopTime: 1
    m_LoopBlend: 0
    m_LoopBlendOrientation: 0
    m_LoopBlendPositionY: 0
    m_LoopBlendPositionXZ: 0
    m_KeepOriginalOrientation: 0
    m_KeepOriginalPositionY: 1
    m_KeepOriginalPositionXZ: 0
    m_HeightFromFeet: 0
    m_Mirror: 0
  m_EditorCurves: []
  m_EulerEditorCurves: []
  m_HasGenericRootTransform: 0
  m_HasMotionFloatCurves: 0
  m_Events: []
