%YAML 1.1
%TAG !u! tag:unity3d.com,2011:
--- !u!74 &7400000
AnimationClip:
  m_ObjectHideFlags: 0
  m_CorrespondingSourceObject: {fileID: 0}
  m_PrefabInstance: {fileID: 0}
  m_PrefabAsset: {fileID: 0}
  m_Name: Dead
  serializedVersion: 6
  m_Legacy: 0
  m_Compressed: 0
  m_UseHighQualityCurve: 1
  m_RotationCurves: []
  m_CompressedRotationCurves: []
  m_EulerCurves: []
  m_PositionCurves: []
  m_ScaleCurves: []
  m_FloatCurves: []
  m_PPtrCurves:
  - curve:
    - time: 0
      value: {fileID: 21300000, guid: c18c6d8928bcfef43b2c851a7a7398fc, type: 3}
    - time: 0.05
      value: {fileID: 21300000, guid: 6e60a5a72a534e3498a39dd129d59c5f, type: 3}
    - time: 0.11666667
      value: {fileID: 21300000, guid: 7864b13d29c8c8b47ae0611d9fe8edf3, type: 3}
    - time: 0.16666667
      value: {fileID: 21300000, guid: 730e40299f693af47b284637206ac6ce, type: 3}
    - time: 0.21666667
      value: {fileID: 21300000, guid: 127e1e59ebd12e248b3414324860fbb0, type: 3}
    - time: 0.28333333
      value: {fileID: 21300000, guid: 6d616f419f5daf44db3d1901f9437051, type: 3}
    - time: 0.33333334
      value: {fileID: 21300000, guid: e4d21a1b2db20eb44bf07444791330fe, type: 3}
    - time: 0.38333333
      value: {fileID: 21300000, guid: 8d3ea8390ae165b40aacac2debf10da6, type: 3}
    - time: 0.45
      value: {fileID: 21300000, guid: acd7b0bf8fcd6564eb8f91e17ddf4477, type: 3}
    - time: 0.5
      value: {fileID: 21300000, guid: 9a55138293dee034684208afba62d19d, type: 3}
    - time: 0.55
      value: {fileID: 21300000, guid: 606af9a1bc5a01f4293feb428d3b1f73, type: 3}
    - time: 0.6166667
      value: {fileID: 21300000, guid: 6baf69a2712abe74eafc3cf313aaaa1a, type: 3}
    - time: 0.6666667
      value: {fileID: 21300000, guid: 053d76b91e40518439da55198575efc1, type: 3}
    attribute: m_Sprite
    path: 
    classID: 212
    script: {fileID: 0}
  m_SampleRate: 60
  m_WrapMode: 0
  m_Bounds:
    m_Center: {x: 0, y: 0, z: 0}
    m_Extent: {x: 0, y: 0, z: 0}
  m_ClipBindingConstant:
    genericBindings:
    - serializedVersion: 2
      path: 0
      attribute: 0
      script: {fileID: 0}
      typeID: 212
      customType: 23
      isPPtrCurve: 1
    pptrCurveMapping:
    - {fileID: 21300000, guid: c18c6d8928bcfef43b2c851a7a7398fc, type: 3}
    - {fileID: 21300000, guid: 6e60a5a72a534e3498a39dd129d59c5f, type: 3}
    - {fileID: 21300000, guid: 7864b13d29c8c8b47ae0611d9fe8edf3, type: 3}
    - {fileID: 21300000, guid: 730e40299f693af47b284637206ac6ce, type: 3}
    - {fileID: 21300000, guid: 127e1e59ebd12e248b3414324860fbb0, type: 3}
    - {fileID: 21300000, guid: 6d616f419f5daf44db3d1901f9437051, type: 3}
    - {fileID: 21300000, guid: e4d21a1b2db20eb44bf07444791330fe, type: 3}
    - {fileID: 21300000, guid: 8d3ea8390ae165b40aacac2debf10da6, type: 3}
    - {fileID: 21300000, guid: acd7b0bf8fcd6564eb8f91e17ddf4477, type: 3}
    - {fileID: 21300000, guid: 9a55138293dee034684208afba62d19d, type: 3}
    - {fileID: 21300000, guid: 606af9a1bc5a01f4293feb428d3b1f73, type: 3}
    - {fileID: 21300000, guid: 6baf69a2712abe74eafc3cf313aaaa1a, type: 3}
    - {fileID: 21300000, guid: 053d76b91e40518439da55198575efc1, type: 3}
  m_AnimationClipSettings:
    serializedVersion: 2
    m_AdditiveReferencePoseClip: {fileID: 0}
    m_AdditiveReferencePoseTime: 0
    m_StartTime: 0
    m_StopTime: 0.68333334
    m_OrientationOffsetY: 0
    m_Level: 0
    m_CycleOffset: 0
    m_HasAdditiveReferencePose: 0
    m_LoopTime: 0
    m_LoopBlend: 0
    m_LoopBlendOrientation: 0
    m_LoopBlendPositionY: 0
    m_LoopBlendPositionXZ: 0
    m_KeepOriginalOrientation: 0
    m_KeepOriginalPositionY: 1
    m_KeepOriginalPositionXZ: 0
    m_HeightFromFeet: 0
    m_Mirror: 0
  m_EditorCurves: []
  m_EulerEditorCurves: []
  m_HasGenericRootTransform: 0
  m_HasMotionFloatCurves: 0
  m_Events: []
